<svg width="36" height="37" viewBox="0 0 36 37" fill="none" xmlns="http://www.w3.org/2000/svg">
<path d="M18 26.2639C16.9799 25.3937 16.0343 24.4397 15.1731 23.4119C13.8808 21.8684 12.3462 19.5697 12.3462 17.3793C12.345 15.0915 13.7227 13.0285 15.8363 12.153C17.9499 11.2775 20.3828 11.762 21.9997 13.3804C23.063 14.4389 23.6587 15.8789 23.6539 17.3793C23.6539 19.5697 22.1193 21.8684 20.827 23.4119C19.9658 24.4397 19.0202 25.3937 18 26.2639ZM18 14.9562C17.1344 14.9562 16.3344 15.418 15.9016 16.1677C15.4688 16.9174 15.4688 17.8411 15.9016 18.5908C16.3344 19.3405 17.1344 19.8023 18 19.8023C19.3383 19.8023 20.4231 18.7175 20.4231 17.3793C20.4231 16.041 19.3383 14.9562 18 14.9562Z" fill="#2E3A59"/>
</svg>
